{
  "define":{
    "_host":"localhost",
    "_port":"3500",
    "_portdb":"27017",
    "_hostdb":"127.0.0.1",
    "_dbname":"test",
    "_dirname":"/home/deus/WebstormProjects/circle/circle-game/",
    "_expansion":"css|js|ttf|woff|otf|eot|svg|js.map",
    "_dir_statics":"/home/deus/WebstormProjects/circle/circle-game/protected/statics/",
    "_dir_classes":"/home/deus/WebstormProjects/circle/circle-game/protected/classes/",
    "_dir_controllers":"/home/deus/WebstormProjects/circle/circle-game/protected/controllers/",
    "_dir_modules":"/home/deus/WebstormProjects/circle/circle-game/protected/modules/",
    "_dir_tpl":"/home/deus/WebstormProjects/circle/circle-game/import/ui/",
    "_googleAuth_redirect_uri":"http://localhost:3500/users/auth/",
    "_googleAuth_client_id":"689372197173-sjk5rve3a432hgksipfg6rcs0uck8nk7.apps.googleusercontent.com",
    "_googleAuth_secret_id":"h1TsvfigPdVoV12cx-S4UpJa"
  },
  "modules": {
    "http":"http",
    "express":"express",
    "fs":"fs",
    "session":"express-session"
  }
}